<?xml version="1.0" encoding="utf-8"?>
<!-- Generator: Adobe Illustrator 23.0.0, SVG Export Plug-In . SVG Version: 6.00 Build 0)  -->
<svg version="1.1" id="Layer_1" xmlns="http://www.w3.org/2000/svg" xmlns:xlink="http://www.w3.org/1999/xlink" x="0px" y="0px"
	 viewBox="0 0 359.5 359.5" style="enable-background:new 0 0 359.5 359.5;" xml:space="preserve">
<style type="text/css">
	.st0{fill:#F18A00;}
	.st1{fill:#FFFFFF;}
</style>
<rect x="-2" y="0.4" class="st0" width="363" height="362"/>
<g>
	<g>
		<g>
			<path class="st1" d="M237,180.9c-8-8-17.7-14.5-28.4-18.8c22-11.8,36.4-34.3,36.4-61.1c0-38.6-31.1-69.1-69.7-69.1
				S105.6,63,105.6,101c0,27.3,16.1,51.5,39.7,62.7c-9.1,4.3-17.7,10.2-24.7,17.2c-15,15-24.1,35.9-24.1,59s9.1,44,24.1,59
				s35.4,24.7,58.4,24.7l0,0c23,0,43.4-9.1,58.4-24.7c15-15,24.1-35.9,24.1-59C261.2,217.4,251.5,196.5,237,180.9z M146.4,149.3
				c24.7-1.6,47.2-14.5,54.7-39.7c2.7-9.1-11.8-13.4-14.5-3.8c-4.8,15.5-16.6,24.1-32.2,27.9c-5.4,1.1-10.7,1.6-16.6,1.1
				c-2.1,0-3.8,0-5.9-0.5h-0.5l0,0c-1.1,0-1.6,0-2.7,0c-6.4-9.1-10.7-20.4-10.7-32.2c0-30.6,25.2-55.7,56.3-55.7
				s56.3,24.7,56.3,55.7c0,28.9-22.5,53.1-51.5,55.2c-0.5,0-1.1,0-1.6,0c-1.6,0-3.8,0-5.4,0C163.1,156.3,154.5,153.6,146.4,149.3z
				 M229,283.3c-0.5,0-1.1,0-2.1,0c-0.5,0-0.5,0-1.1,0c0.5,0-3.2,0.5-4.3,0.5c-5.4,0.5-10.7,0-16.1-1.1c-16.6-3.8-26.8-15-30.6-31.1
				c-2.7-9.6-17.2-5.4-14.5,3.8c5.4,20.4,18.8,35.4,38.6,41.3c3.8,1.1,7,1.6,10.7,2.1c-9.6,5.4-20.4,8.6-32.2,8.6
				c-18.2,0-34.8-7.5-46.6-19.8s-19.3-28.9-19.3-47.2c0-18.8,7.5-35.4,19.3-47.2c11.8-12.3,28.4-19.8,46.6-19.8s34.8,7.5,46.6,19.8
				s19.3,28.9,19.3,47.2C244.5,256.5,238.6,271.5,229,283.3z"/>
			<path class="st1" d="M157.7,60.3c-4.3,0-7.5,7.5-7.5,16.6s3.2,16.6,7.5,16.6s7.5-7.5,7.5-16.6S162,60.3,157.7,60.3z"/>
			<path class="st1" d="M179.1,60.3c-4.3,0-7.5,7.5-7.5,16.6s3.2,16.6,7.5,16.6s7.5-7.5,7.5-16.6S183.4,60.3,179.1,60.3z"/>
			<path class="st1" d="M179.1,198.1c-4.3,0-7.5,7.5-7.5,16.6s3.2,16.6,7.5,16.6s7.5-7.5,7.5-16.6S183.4,198.1,179.1,198.1z"/>
			<path class="st1" d="M201.7,198.1c-4.3,0-7.5,7.5-7.5,16.6s3.2,16.6,7.5,16.6s7.5-7.5,7.5-16.6S205.9,198.1,201.7,198.1z"/>
		</g>
	</g>
	<g>
		<g>
			<path class="st1" d="M237,180.9c-8-8-17.7-14.5-28.4-18.8c22-11.8,36.4-34.3,36.4-61.1c0-38.6-31.1-69.1-69.7-69.1
				S105.6,63,105.6,101c0,27.3,16.1,51.5,39.7,62.7c-9.1,4.3-17.7,10.2-24.7,17.2c-15,15-24.1,35.9-24.1,59s9.1,44,24.1,59
				s35.4,24.7,58.4,24.7l0,0c23,0,43.4-9.1,58.4-24.7c15-15,24.1-35.9,24.1-59C261.2,217.4,251.5,196.5,237,180.9z M146.4,149.3
				c24.7-1.6,47.2-14.5,54.7-39.7c2.7-9.1-11.8-13.4-14.5-3.8c-4.8,15.5-16.6,24.1-32.2,27.9c-5.4,1.1-10.7,1.6-16.6,1.1
				c-2.1,0-3.8,0-5.9-0.5h-0.5l0,0c-1.1,0-1.6,0-2.7,0c-6.4-9.1-10.7-20.4-10.7-32.2c0-30.6,25.2-55.7,56.3-55.7
				s56.3,24.7,56.3,55.7c0,28.9-22.5,53.1-51.5,55.2c-0.5,0-1.1,0-1.6,0c-1.6,0-3.8,0-5.4,0C163.1,156.3,154.5,153.6,146.4,149.3z
				 M229,283.3c-0.5,0-1.1,0-2.1,0c-0.5,0-0.5,0-1.1,0c0.5,0-3.2,0.5-4.3,0.5c-5.4,0.5-10.7,0-16.1-1.1c-16.6-3.8-26.8-15-30.6-31.1
				c-2.7-9.6-17.2-5.4-14.5,3.8c5.4,20.4,18.8,35.4,38.6,41.3c3.8,1.1,7,1.6,10.7,2.1c-9.6,5.4-20.4,8.6-32.2,8.6
				c-18.2,0-34.8-7.5-46.6-19.8s-19.3-28.9-19.3-47.2c0-18.8,7.5-35.4,19.3-47.2c11.8-12.3,28.4-19.8,46.6-19.8s34.8,7.5,46.6,19.8
				s19.3,28.9,19.3,47.2C244.5,256.5,238.6,271.5,229,283.3z"/>
			<path class="st1" d="M157.7,60.3c-4.3,0-7.5,7.5-7.5,16.6s3.2,16.6,7.5,16.6s7.5-7.5,7.5-16.6S162,60.3,157.7,60.3z"/>
			<path class="st1" d="M179.1,60.3c-4.3,0-7.5,7.5-7.5,16.6s3.2,16.6,7.5,16.6s7.5-7.5,7.5-16.6S183.4,60.3,179.1,60.3z"/>
			<path class="st1" d="M179.1,198.1c-4.3,0-7.5,7.5-7.5,16.6s3.2,16.6,7.5,16.6s7.5-7.5,7.5-16.6S183.4,198.1,179.1,198.1z"/>
			<path class="st1" d="M201.7,198.1c-4.3,0-7.5,7.5-7.5,16.6s3.2,16.6,7.5,16.6s7.5-7.5,7.5-16.6S205.9,198.1,201.7,198.1z"/>
		</g>
	</g>
</g>
</svg>
