<svg version="1.1" id="Layer_1" xmlns="http://www.w3.org/2000/svg" xmlns:xlink="http://www.w3.org/1999/xlink" x="0px" y="0px"
	 width="24px" height="24px" viewBox="-5.5 0 24 24" enable-background="new -5.5 0 24 24" xml:space="preserve">
<path fill="#FFFFFF" d="M8.667,8.628H12l-0.391,3.683H8.668V23H4.244V12.312H2.04V8.628h2.204V6.41c0-1.573,0.37-2.764,1.115-3.572
	c0.743-0.81,1.966-1.213,3.67-1.213h2.943V5.31H10.13c-0.338,0-0.606,0.027-0.812,0.083C9.117,5.449,8.971,5.55,8.881,5.697
	c-0.09,0.147-0.15,0.297-0.176,0.448c-0.025,0.15-0.04,0.365-0.04,0.642v1.84L8.667,8.628z"/>
</svg>
