<?xml version="1.0" encoding="utf-8"?>
<!-- Generator: Adobe Illustrator 24.0.0, SVG Export Plug-In . SVG Version: 6.00 Build 0)  -->
<svg version="1.1" id="Layer_1" xmlns="http://www.w3.org/2000/svg" xmlns:xlink="http://www.w3.org/1999/xlink" x="0px" y="0px"
	 viewBox="0 0 24 24" style="enable-background:new 0 0 24 24;" xml:space="preserve">
<style type="text/css">
	.st0{fill:#FFFFFF;}
</style>
<title>Map Icon</title>
<path class="st0" d="M12,1c-5,0-9,4-9,9c0,7,9,13,9,13s9-6,9-13C21,5,17,1,12,1z M12,13c-1.7,0-3-1.3-3-3s1.3-3,3-3s3,1.3,3,3
	S13.7,13,12,13z"/>
</svg>
